{
"total": 20,
"per_page": 5,
"current_page": 1,
"last_page": 4,
"next_page_url": "json/posts-page-2.json",
"prev_page_url": null,
"from": 1,
"to": 5,
"data": [
    {
    "id": "21",
    "post_date": "2015-05-11 11:17:00",
    "post_author": "1",
    "post_author_edited": null,
    "post_title": "Pellentesque habitant morbi tristique ",
    "post_slug": "et netus et malesuada fames",
    "post_content": "<p>Pellentesque habitant morbi tristique senectus et netus et malesuada fames ac turpis egestas. Vestibulum tortor quam, feugiat vitae, ultricies eget, tempor sit amet, ante. Donec eu libero sit amet quam egestas semper. Aenean ultricies mi vitae est. Mauris placerat eleifend leo.</p>",
    "post_status": "published",
    "featured_image": null,
    "created_at": "2016-05-11 10:18:17",
    "updated_at": "2016-05-11 10:18:17",
    "author": {
    "id": "1",
    "firstname": "Admin",
    "lastname": "User",
    "email": "Admidn@admin.com",
    "profile_image": "https://graph.facebook.com/100001394310643/picture?type=square",
    "confirmed": "1",
    "confirmation_code": null,
    "created_at": "2015-05-11 10:00:45",
    "updated_at": "2015-05-11 10:00:45"
    },
    "categories": [
    {
    "id": "2",
    "user_id": "1",
    "user_id_edited": "1",
    "title": "html",
    "slug": "html",
    "created_at": "2015-05-11 10:00:45",
    "updated_at": "2015-05-11 10:00:45",
    "pivot": {
    "post_id": "21",
    "category_id": "2"
    }
    },
    {
    "id": "3",
    "user_id": "1",
    "user_id_edited": "1",
    "title": "css",
    "slug": "css",
    "created_at": "2015-05-11 10:00:45",
    "updated_at": "2015-05-11 10:00:45",
    "pivot": {
    "post_id": "21",
    "category_id": "3"
    }
    }
    ]
},
{
"id": "2",
"post_date": "2015-04-08 15:00:26",
"post_author": "1",
"post_author_edited": "1",
"post_title": "Hic eos quia velit vitae et.",
"post_slug": "hic-eos-quia-velit-vitae-et",
"post_content": "Id consequatur eum sunt rerum incidunt libero est. Rerum ad optio omnis natus incidunt. Vel ad praesentium magni error. Quis deserunt laudantium magni doloribus sit. Iste dolorem impedit quo distinctio velit et sunt. Corporis voluptas ea rerum dolorum natus nihil. Quia tempore error et rerum. Sapiente et aperiam explicabo quis. Eos illum iusto doloribus consectetur earum dolor.",
"post_status": "published",
"featured_image": null,
"created_at": "2015-05-11 10:00:45",
"updated_at": "2015-05-11 10:00:45",
"author": {
"id": "1",
"firstname": "Admin",
"lastname": "User",
"email": "admin@admin.com",
"profile_image": "https://graph.facebook.com/100001394310643/picture?type=square",
"confirmed": "1",
"confirmation_code": null,
"created_at": "2015-05-11 10:00:45",
"updated_at": "2015-05-11 10:00:45"
},
"categories": []
},
{
"id": "3",
"post_date": "2015-04-08 15:00:26",
"post_author": "1",
"post_author_edited": "1",
"post_title": "Ut officiis molestiae ex dolor ut eos.",
"post_slug": "ut-officiis-molestiae-ex-dolor-ut-eos",
"post_content": "Eos iure dicta nemo consectetur voluptatibus consequatur. Velit perspiciatis repellendus rerum. Reprehenderit quasi dolores deleniti. Porro hic occaecati non esse labore quisquam distinctio. Voluptatum dolorum sed temporibus consequatur fugit. Ut similique eligendi provident aut aut eligendi dignissimos. Sed est doloremque natus sunt corrupti vel. Qui molestiae ut voluptate sit et inventore et. Fugit aut et beatae possimus optio. Eligendi qui qui natus magnam et veritatis qui. Corrupti praesentium et qui dolorem sunt.",
"post_status": "published",
"featured_image": null,
"created_at": "2015-05-11 10:00:45",
"updated_at": "2015-05-11 10:00:45",
"author": {
"id": "1",
"firstname": "Admin",
"lastname": "User",
"email": "admin@admin.com",
"profile_image": "https://graph.facebook.com/100001394310643/picture?type=square",
"confirmed": "1",
"confirmation_code": null,
"created_at": "2015-05-11 10:00:45",
"updated_at": "2015-05-11 10:00:45"
},
"categories": []
},
{
"id": "4",
"post_date": "2015-04-08 15:00:26",
"post_author": "1",
"post_author_edited": "1",
"post_title": "Possimus non sit hic quo ut.",
"post_slug": "possimus-non-sit-hic-quo-ut",
"post_content": "Inventore nam rerum qui optio. Aut optio et dolor et. Rerum quasi rerum sit modi nostrum. Illo rem itaque nobis et nesciunt blanditiis minima. Ullam saepe in corrupti corrupti accusamus in. Id aut sapiente et rerum aliquam qui. Est qui et nihil magnam. Consequuntur molestiae aut voluptates est quis ducimus. Aut facilis eius earum id aut illo. Voluptas laboriosam esse aut quia provident expedita. Quia ipsa adipisci veniam aut itaque.",
"post_status": "published",
"featured_image": null,
"created_at": "2015-05-11 10:00:45",
"updated_at": "2015-05-11 10:00:45",
"author": {
"id": "1",
"firstname": "Admin",
"lastname": "User",
"email": "admin@admin.com",
"profile_image": "https://graph.facebook.com/100001394310643/picture?type=square",
"confirmed": "1",
"confirmation_code": null,
"created_at": "2015-05-11 10:00:45",
"updated_at": "2015-05-11 10:00:45"
},
"categories": []
},
{
"id": "5",
"post_date": "2015-04-08 15:00:26",
"post_author": "1",
"post_author_edited": "1",
"post_title": "Non quae aperiam ex et.",
"post_slug": "non-quae-aperiam-ex-et",
"post_content": "Velit facilis aut sunt corporis nihil ut. Et nihil sed quod atque. Voluptatem quam quo autem nihil quam dolorem quas. Rerum qui numquam rerum quia a in. Tenetur sapiente quia quia dolorem. Facere voluptas voluptas aut in laborum aut. Numquam ex quo non repudiandae sed. Accusamus similique explicabo suscipit. Dicta reiciendis nobis est maxime. Ab enim cupiditate sit autem eum. Rerum nesciunt non occaecati iusto molestiae ipsam placeat quis. Et velit dolor quisquam at.",
"post_status": "published",
"featured_image": null,
"created_at": "2015-05-11 10:00:45",
"updated_at": "2015-05-11 10:00:45",
"author": {
"id": "1",
"firstname": "Admin",
"lastname": "User",
"email": "admin@admin.com",
"profile_image": "https://graph.facebook.com/100001394310643/picture?type=square",
"confirmed": "1",
"confirmation_code": null,
"created_at": "2015-05-11 10:00:45",
"updated_at": "2015-05-11 10:00:45"
},
"categories": []
}
]
}
